
ARP$B%X%C%@(B

$B%*%Z%l!<%7%g%s(B(2byte)$B$NCM(B
0x0001$B"*(BARP$BMW5a(B
0x0002$B"*(BARP$B1~Ez(B
    0                   1                   2                   3
    0 1 2 3 4 5 6 7 8 9 0 1 2 3 4 5 6 7 8 9 0 1 2 3 4 5 6 7 8 9 0 1
                                   +-+-+-+-+-+-+-+-+-+-+-+-+-+-+-+-+
                                   | $B%O!<%I%?%$%W(B(2byte)           |
   +-+-+-+-+-+-+-+-+-+-+-+-+-+-+-+-+-+-+-+-+-+-+-+-+-+-+-+-+-+-+-+-+
   | $B%W%m%H%3%k%?%$%W(B(2byte)       |$B%O!<%I%5%$%:(B   |$B%W%m%H%3%k(Bsize |
   +-+-+-+-+-+-+-+-+-+-+-+-+-+-+-+-+-+-+-+-+-+-+-+-+-+-+-+-+-+-+-+-+
   | $B%*%Z%l!<%7%g%s(B(2byte)         |$BAw?.85(BMAC$B%"%I%l%9(B(6byte)       |
   +-+-+-+-+-+-+-+-+-+-+-+-+-+-+-+-+                               |
   |                                                               |
   +-+-+-+-+-+-+-+-+-+-+-+-+-+-+-+-+-+-+-+-+-+-+-+-+-+-+-+-+-+-+-+-+
   | $BAw?.85(BIP$B%"%I%l%9(B(4byte)                                       |
   +-+-+-+-+-+-+-+-+-+-+-+-+-+-+-+-+-+-+-+-+-+-+-+-+-+-+-+-+-+-+-+-+
   | $B08@h(BMAC$B%"%I%l%9(B(6byte)                                        |
   |                               +-+-+-+-+-+-+-+-+-+-+-+-+-+-+-+-+
   |                               | $B08@h(BIP$B%"%I%l%9(B(4byte)         |
   +-+-+-+-+-+-+-+-+-+-+-+-+-+-+-+-+-------------------------------+
   |                               |
   +-+-+-+-+-+-+-+-+-+-+-+-+-+-+-+-+

